2018-05-28 15:01:15,177 ERROR:Exception on /reset_password_request [POST] [in c:\users\lowka\desktop\microblog\venv\lib\site-packages\flask\app.py:1761]
Traceback (most recent call last):
  File "c:\users\lowka\desktop\microblog\venv\lib\site-packages\flask\app.py", line 2292, in wsgi_app
    response = self.full_dispatch_request()
  File "c:\users\lowka\desktop\microblog\venv\lib\site-packages\flask\app.py", line 1815, in full_dispatch_request
    rv = self.handle_user_exception(e)
  File "c:\users\lowka\desktop\microblog\venv\lib\site-packages\flask\app.py", line 1718, in handle_user_exception
    reraise(exc_type, exc_value, tb)
  File "c:\users\lowka\desktop\microblog\venv\lib\site-packages\flask\_compat.py", line 35, in reraise
    raise value
  File "c:\users\lowka\desktop\microblog\venv\lib\site-packages\flask\app.py", line 1813, in full_dispatch_request
    rv = self.dispatch_request()
  File "c:\users\lowka\desktop\microblog\venv\lib\site-packages\flask\app.py", line 1799, in dispatch_request
    return self.view_functions[rule.endpoint](**req.view_args)
  File "C:\Users\lowka\Desktop\microblog\app\routes.py", line 160, in reset_password_request
    send_password_reset_email(user)
  File "C:\Users\lowka\Desktop\microblog\app\email.py", line 23, in send_password_reset_email
    user=user, token=token),
  File "c:\users\lowka\desktop\microblog\venv\lib\site-packages\flask\templating.py", line 134, in render_template
    return _render(ctx.app.jinja_env.get_or_select_template(template_name_or_list),
  File "c:\users\lowka\desktop\microblog\venv\lib\site-packages\jinja2\environment.py", line 869, in get_or_select_template
    return self.get_template(template_name_or_list, parent, globals)
  File "c:\users\lowka\desktop\microblog\venv\lib\site-packages\jinja2\environment.py", line 830, in get_template
    return self._load_template(name, self.make_globals(globals))
  File "c:\users\lowka\desktop\microblog\venv\lib\site-packages\jinja2\environment.py", line 804, in _load_template
    template = self.loader.load(self, name, globals)
  File "c:\users\lowka\desktop\microblog\venv\lib\site-packages\jinja2\loaders.py", line 113, in load
    source, filename, uptodate = self.get_source(environment, name)
  File "c:\users\lowka\desktop\microblog\venv\lib\site-packages\flask\templating.py", line 58, in get_source
    return self._get_source_fast(environment, template)
  File "c:\users\lowka\desktop\microblog\venv\lib\site-packages\flask\templating.py", line 86, in _get_source_fast
    raise TemplateNotFound(template)
jinja2.exceptions.TemplateNotFound: email/reset_password.txt
2018-05-28 15:05:22,469 INFO:Microblog startup [in C:\Users\lowka\Desktop\microblog\app\__init__.py:48]
2018-05-28 15:05:29,672 ERROR:Exception on /reset_password_request [POST] [in c:\users\lowka\desktop\microblog\venv\lib\site-packages\flask\app.py:1761]
Traceback (most recent call last):
  File "c:\users\lowka\desktop\microblog\venv\lib\site-packages\flask\app.py", line 2292, in wsgi_app
    response = self.full_dispatch_request()
  File "c:\users\lowka\desktop\microblog\venv\lib\site-packages\flask\app.py", line 1815, in full_dispatch_request
    rv = self.handle_user_exception(e)
  File "c:\users\lowka\desktop\microblog\venv\lib\site-packages\flask\app.py", line 1718, in handle_user_exception
    reraise(exc_type, exc_value, tb)
  File "c:\users\lowka\desktop\microblog\venv\lib\site-packages\flask\_compat.py", line 35, in reraise
    raise value
  File "c:\users\lowka\desktop\microblog\venv\lib\site-packages\flask\app.py", line 1813, in full_dispatch_request
    rv = self.dispatch_request()
  File "c:\users\lowka\desktop\microblog\venv\lib\site-packages\flask\app.py", line 1799, in dispatch_request
    return self.view_functions[rule.endpoint](**req.view_args)
  File "C:\Users\lowka\Desktop\microblog\app\routes.py", line 160, in reset_password_request
    send_password_reset_email(user)
  File "C:\Users\lowka\Desktop\microblog\app\email.py", line 25, in send_password_reset_email
    user=user, token=token))
  File "c:\users\lowka\desktop\microblog\venv\lib\site-packages\flask\templating.py", line 134, in render_template
    return _render(ctx.app.jinja_env.get_or_select_template(template_name_or_list),
  File "c:\users\lowka\desktop\microblog\venv\lib\site-packages\jinja2\environment.py", line 869, in get_or_select_template
    return self.get_template(template_name_or_list, parent, globals)
  File "c:\users\lowka\desktop\microblog\venv\lib\site-packages\jinja2\environment.py", line 830, in get_template
    return self._load_template(name, self.make_globals(globals))
  File "c:\users\lowka\desktop\microblog\venv\lib\site-packages\jinja2\environment.py", line 804, in _load_template
    template = self.loader.load(self, name, globals)
  File "c:\users\lowka\desktop\microblog\venv\lib\site-packages\jinja2\loaders.py", line 113, in load
    source, filename, uptodate = self.get_source(environment, name)
  File "c:\users\lowka\desktop\microblog\venv\lib\site-packages\flask\templating.py", line 58, in get_source
    return self._get_source_fast(environment, template)
  File "c:\users\lowka\desktop\microblog\venv\lib\site-packages\flask\templating.py", line 86, in _get_source_fast
    raise TemplateNotFound(template)
jinja2.exceptions.TemplateNotFound: email/reset_password.html
2018-05-28 15:06:55,927 INFO:Microblog startup [in C:\Users\lowka\Desktop\microblog\app\__init__.py:48]
2018-05-28 15:09:45,518 INFO:Microblog startup [in C:\Users\lowka\Desktop\microblog\app\__init__.py:48]
2018-05-28 15:12:29,517 INFO:Microblog startup [in C:\Users\lowka\Desktop\microblog\app\__init__.py:48]
2018-05-28 15:14:29,624 INFO:Microblog startup [in C:\Users\lowka\Desktop\microblog\app\__init__.py:48]
2018-05-28 15:19:43,712 INFO:Microblog startup [in C:\Users\lowka\Desktop\microblog\app\__init__.py:48]
2018-05-28 15:33:55,643 INFO:Microblog startup [in C:\Users\lowka\Desktop\microblog\app\__init__.py:48]
2018-05-28 15:35:09,135 INFO:Microblog startup [in C:\Users\lowka\Desktop\microblog\app\__init__.py:48]
2018-05-28 15:40:11,530 INFO:Microblog startup [in C:\Users\lowka\Desktop\microblog\app\__init__.py:48]
2018-05-28 15:45:04,080 INFO:Microblog startup [in C:\Users\lowka\Desktop\microblog\app\__init__.py:48]
2018-05-28 15:47:36,154 INFO:Microblog startup [in C:\Users\lowka\Desktop\microblog\app\__init__.py:48]
2018-05-28 15:48:45,595 INFO:Microblog startup [in C:\Users\lowka\Desktop\microblog\app\__init__.py:48]
2018-05-28 15:55:29,541 INFO:Microblog startup [in C:\Users\lowka\Desktop\microblog\app\__init__.py:48]
2018-05-28 17:30:38,772 INFO:Microblog startup [in C:\Users\lowka\Desktop\microblog\app\__init__.py:49]
2018-05-28 17:58:39,859 INFO:Microblog startup [in C:\Users\lowka\Desktop\microblog\app\__init__.py:52]
2018-05-28 18:58:41,311 INFO:Microblog startup [in C:\Users\lowka\Desktop\microblog\app\__init__.py:54]
2018-05-28 19:07:26,111 INFO:Microblog startup [in C:\Users\lowka\Desktop\microblog\app\__init__.py:54]
2018-05-28 19:08:13,567 INFO:Microblog startup [in C:\Users\lowka\Desktop\microblog\app\__init__.py:54]
2018-05-28 19:09:23,532 INFO:Microblog startup [in C:\Users\lowka\Desktop\microblog\app\__init__.py:54]
2018-05-28 19:12:10,127 INFO:Microblog startup [in C:\Users\lowka\Desktop\microblog\app\__init__.py:54]
2018-05-28 19:12:13,201 INFO:Microblog startup [in C:\Users\lowka\Desktop\microblog\app\__init__.py:54]
2018-05-28 19:12:18,596 INFO:Microblog startup [in C:\Users\lowka\Desktop\microblog\app\__init__.py:54]
2018-05-28 19:12:52,112 INFO: Microblog startup [in C:\Users\lowka\Desktop\microblog\app\__init__.py:52]
2018-05-28 19:13:12,338 INFO: Microblog startup [in C:\Users\lowka\Desktop\microblog\app\__init__.py:52]
2018-05-28 19:13:25,018 INFO: Microblog startup [in C:\Users\lowka\Desktop\microblog\app\__init__.py:52]
2018-05-28 19:14:56,314 INFO: Microblog startup [in C:\Users\lowka\Desktop\microblog\app\__init__.py:52]
2018-05-29 10:42:55,021 INFO: Microblog startup [in C:\Users\lowka\Desktop\microblog\app\__init__.py:52]
2018-05-29 10:43:09,455 INFO: Microblog startup [in C:\Users\lowka\Desktop\microblog\app\__init__.py:52]
2018-05-29 10:43:18,973 INFO: Microblog startup [in C:\Users\lowka\Desktop\microblog\app\__init__.py:52]
2018-05-29 11:49:51,912 INFO: Microblog startup [in C:\Users\lowka\Desktop\microblog\app\__init__.py:52]
2018-05-29 11:54:16,400 INFO: Microblog startup [in C:\Users\lowka\Desktop\microblog\app\__init__.py:52]
2018-05-29 12:04:02,214 INFO: Microblog startup [in C:\Users\lowka\Desktop\microblog\app\__init__.py:52]
2018-05-29 14:23:32,324 INFO: Microblog startup [in C:\Users\lowka\Desktop\microblog\app\__init__.py:52]
2018-05-29 14:23:42,839 INFO: Microblog startup [in C:\Users\lowka\Desktop\microblog\app\__init__.py:52]
2018-05-29 14:23:53,323 INFO: Microblog startup [in C:\Users\lowka\Desktop\microblog\app\__init__.py:52]
2018-05-29 14:24:00,572 INFO: Microblog startup [in C:\Users\lowka\Desktop\microblog\app\__init__.py:52]
2018-05-29 14:24:04,783 INFO: Microblog startup [in C:\Users\lowka\Desktop\microblog\app\__init__.py:52]
2018-05-29 14:28:12,710 INFO: Microblog startup [in C:\Users\lowka\Desktop\microblog\app\__init__.py:52]
2018-05-29 14:28:21,038 INFO: Microblog startup [in C:\Users\lowka\Desktop\microblog\app\__init__.py:52]
2018-05-29 14:28:24,447 INFO: Microblog startup [in C:\Users\lowka\Desktop\microblog\app\__init__.py:52]
2018-05-29 14:33:09,823 INFO: Microblog startup [in C:\Users\lowka\Desktop\microblog\app\__init__.py:52]
2018-05-29 14:33:16,657 INFO: Microblog startup [in C:\Users\lowka\Desktop\microblog\app\__init__.py:52]
2018-05-29 14:33:34,360 INFO: Microblog startup [in C:\Users\lowka\Desktop\microblog\app\__init__.py:52]
2018-05-29 14:35:57,554 INFO: Microblog startup [in C:\Users\lowka\Desktop\microblog\app\__init__.py:52]
2018-05-29 14:37:27,322 INFO: Microblog startup [in C:\Users\lowka\Desktop\microblog\app\__init__.py:52]
2018-05-29 14:38:02,081 INFO: Microblog startup [in C:\Users\lowka\Desktop\microblog\app\__init__.py:52]
