2018-06-05 16:31:23,195 ERROR: Exception on /notifications [GET] [in c:\users\lowka\desktop\microblog\venv\lib\site-packages\flask\app.py:1761]
Traceback (most recent call last):
  File "c:\users\lowka\desktop\microblog\venv\lib\site-packages\sqlalchemy\engine\base.py", line 1193, in _execute_context
    context)
  File "c:\users\lowka\desktop\microblog\venv\lib\site-packages\sqlalchemy\engine\default.py", line 507, in do_execute
    cursor.execute(statement, parameters)
sqlite3.OperationalError: no such column: user.token

The above exception was the direct cause of the following exception:

Traceback (most recent call last):
  File "c:\users\lowka\desktop\microblog\venv\lib\site-packages\flask\app.py", line 2292, in wsgi_app
    response = self.full_dispatch_request()
  File "c:\users\lowka\desktop\microblog\venv\lib\site-packages\flask\app.py", line 1815, in full_dispatch_request
    rv = self.handle_user_exception(e)
  File "c:\users\lowka\desktop\microblog\venv\lib\site-packages\flask\app.py", line 1718, in handle_user_exception
    reraise(exc_type, exc_value, tb)
  File "c:\users\lowka\desktop\microblog\venv\lib\site-packages\flask\_compat.py", line 35, in reraise
    raise value
  File "c:\users\lowka\desktop\microblog\venv\lib\site-packages\flask\app.py", line 1811, in full_dispatch_request
    rv = self.preprocess_request()
  File "c:\users\lowka\desktop\microblog\venv\lib\site-packages\flask\app.py", line 2087, in preprocess_request
    rv = func()
  File "c:\Users\lowka\Desktop\microblog\app\main\routes.py", line 19, in before_request
    if current_user.is_authenticated:
  File "c:\users\lowka\desktop\microblog\venv\lib\site-packages\werkzeug\local.py", line 347, in __getattr__
    return getattr(self._get_current_object(), name)
  File "c:\users\lowka\desktop\microblog\venv\lib\site-packages\werkzeug\local.py", line 306, in _get_current_object
    return self.__local()
  File "c:\users\lowka\desktop\microblog\venv\lib\site-packages\flask_login\utils.py", line 26, in <lambda>
    current_user = LocalProxy(lambda: _get_user())
  File "c:\users\lowka\desktop\microblog\venv\lib\site-packages\flask_login\utils.py", line 335, in _get_user
    current_app.login_manager._load_user()
  File "c:\users\lowka\desktop\microblog\venv\lib\site-packages\flask_login\login_manager.py", line 359, in _load_user
    return self.reload_user()
  File "c:\users\lowka\desktop\microblog\venv\lib\site-packages\flask_login\login_manager.py", line 321, in reload_user
    user = self.user_callback(user_id)
  File "c:\Users\lowka\Desktop\microblog\app\models.py", line 240, in load_user
    return User.query.get(int(id))
  File "c:\users\lowka\desktop\microblog\venv\lib\site-packages\sqlalchemy\orm\query.py", line 882, in get
    ident, loading.load_on_pk_identity)
  File "c:\users\lowka\desktop\microblog\venv\lib\site-packages\sqlalchemy\orm\query.py", line 952, in _get_impl
    return db_load_fn(self, primary_key_identity)
  File "c:\users\lowka\desktop\microblog\venv\lib\site-packages\sqlalchemy\orm\loading.py", line 247, in load_on_pk_identity
    return q.one()
  File "c:\users\lowka\desktop\microblog\venv\lib\site-packages\sqlalchemy\orm\query.py", line 2884, in one
    ret = self.one_or_none()
  File "c:\users\lowka\desktop\microblog\venv\lib\site-packages\sqlalchemy\orm\query.py", line 2854, in one_or_none
    ret = list(self)
  File "c:\users\lowka\desktop\microblog\venv\lib\site-packages\sqlalchemy\orm\query.py", line 2925, in __iter__
    return self._execute_and_instances(context)
  File "c:\users\lowka\desktop\microblog\venv\lib\site-packages\sqlalchemy\orm\query.py", line 2948, in _execute_and_instances
    result = conn.execute(querycontext.statement, self._params)
  File "c:\users\lowka\desktop\microblog\venv\lib\site-packages\sqlalchemy\engine\base.py", line 948, in execute
    return meth(self, multiparams, params)
  File "c:\users\lowka\desktop\microblog\venv\lib\site-packages\sqlalchemy\sql\elements.py", line 269, in _execute_on_connection
    return connection._execute_clauseelement(self, multiparams, params)
  File "c:\users\lowka\desktop\microblog\venv\lib\site-packages\sqlalchemy\engine\base.py", line 1060, in _execute_clauseelement
    compiled_sql, distilled_params
  File "c:\users\lowka\desktop\microblog\venv\lib\site-packages\sqlalchemy\engine\base.py", line 1200, in _execute_context
    context)
  File "c:\users\lowka\desktop\microblog\venv\lib\site-packages\sqlalchemy\engine\base.py", line 1413, in _handle_dbapi_exception
    exc_info
  File "c:\users\lowka\desktop\microblog\venv\lib\site-packages\sqlalchemy\util\compat.py", line 203, in raise_from_cause
    reraise(type(exception), exception, tb=exc_tb, cause=cause)
  File "c:\users\lowka\desktop\microblog\venv\lib\site-packages\sqlalchemy\util\compat.py", line 186, in reraise
    raise value.with_traceback(tb)
  File "c:\users\lowka\desktop\microblog\venv\lib\site-packages\sqlalchemy\engine\base.py", line 1193, in _execute_context
    context)
  File "c:\users\lowka\desktop\microblog\venv\lib\site-packages\sqlalchemy\engine\default.py", line 507, in do_execute
    cursor.execute(statement, parameters)
sqlalchemy.exc.OperationalError: (sqlite3.OperationalError) no such column: user.token [SQL: 'SELECT user.id AS user_id, user.username AS user_username, user.email AS user_email, user.password_hash AS user_password_hash, user.about_me AS user_about_me, user.last_seen AS user_last_seen, user.token AS user_token, user.token_expiration AS user_token_expiration, user.last_message_read_time AS user_last_message_read_time \nFROM user \nWHERE user.id = ?'] [parameters: (3,)] (Background on this error at: http://sqlalche.me/e/e3q8)
