2018-05-29 14:38:41,354 INFO: Microblog startup [in C:\Users\lowka\Desktop\microblog\app\__init__.py:52]
2018-05-29 14:39:00,048 INFO: Microblog startup [in C:\Users\lowka\Desktop\microblog\app\__init__.py:52]
2018-05-29 14:42:43,004 INFO: Microblog startup [in C:\Users\lowka\Desktop\microblog\app\__init__.py:52]
2018-05-29 14:48:21,916 INFO: Microblog startup [in C:\Users\lowka\Desktop\microblog\app\__init__.py:52]
2018-05-29 14:48:39,676 INFO: Microblog startup [in C:\Users\lowka\Desktop\microblog\app\__init__.py:52]
2018-05-29 14:52:08,920 INFO: Microblog startup [in C:\Users\lowka\Desktop\microblog\app\__init__.py:52]
2018-05-29 14:54:21,803 INFO: Microblog startup [in C:\Users\lowka\Desktop\microblog\app\__init__.py:52]
2018-05-29 14:57:04,914 INFO: Microblog startup [in C:\Users\lowka\Desktop\microblog\app\__init__.py:52]
2018-05-29 14:58:58,461 INFO: Microblog startup [in C:\Users\lowka\Desktop\microblog\app\__init__.py:52]
2018-05-29 14:59:21,458 INFO: Microblog startup [in C:\Users\lowka\Desktop\microblog\app\__init__.py:52]
2018-05-29 15:02:12,596 INFO: Microblog startup [in C:\Users\lowka\Desktop\microblog\app\__init__.py:52]
2018-05-29 15:05:58,684 INFO: Microblog startup [in C:\Users\lowka\Desktop\microblog\app\__init__.py:52]
2018-05-29 15:06:16,443 INFO: Microblog startup [in C:\Users\lowka\Desktop\microblog\app\__init__.py:52]
2018-05-29 15:06:27,534 INFO: Microblog startup [in C:\Users\lowka\Desktop\microblog\app\__init__.py:52]
2018-05-29 15:06:34,156 INFO: Microblog startup [in C:\Users\lowka\Desktop\microblog\app\__init__.py:52]
2018-05-29 15:13:25,636 INFO: Microblog startup [in C:\Users\lowka\Desktop\microblog\app\__init__.py:52]
2018-05-29 15:13:33,884 INFO: Microblog startup [in C:\Users\lowka\Desktop\microblog\app\__init__.py:52]
2018-05-29 15:13:58,991 INFO: Microblog startup [in C:\Users\lowka\Desktop\microblog\app\__init__.py:52]
2018-05-29 15:25:46,562 INFO: Microblog startup [in C:\Users\lowka\Desktop\microblog\app\__init__.py:52]
2018-05-29 15:26:45,185 INFO: Microblog startup [in C:\Users\lowka\Desktop\microblog\app\__init__.py:52]
2018-05-29 15:26:54,458 INFO: Microblog startup [in C:\Users\lowka\Desktop\microblog\app\__init__.py:52]
2018-05-29 15:26:58,194 INFO: Microblog startup [in C:\Users\lowka\Desktop\microblog\app\__init__.py:52]
2018-05-29 15:30:49,450 INFO: Microblog startup [in C:\Users\lowka\Desktop\microblog\app\__init__.py:52]
2018-05-29 15:31:41,021 INFO: Microblog startup [in C:\Users\lowka\Desktop\microblog\app\__init__.py:52]
2018-05-29 15:36:22,852 INFO: Microblog startup [in C:\Users\lowka\Desktop\microblog\app\__init__.py:52]
2018-05-29 15:36:52,483 INFO: Microblog startup [in C:\Users\lowka\Desktop\microblog\app\__init__.py:52]
2018-05-29 15:37:07,318 INFO: Microblog startup [in C:\Users\lowka\Desktop\microblog\app\__init__.py:52]
2018-05-29 15:39:45,630 INFO: Microblog startup [in C:\Users\lowka\Desktop\microblog\app\__init__.py:52]
2018-05-29 15:40:23,884 INFO: Microblog startup [in C:\Users\lowka\Desktop\microblog\app\__init__.py:52]
2018-05-29 17:27:32,015 INFO: Microblog startup [in C:\Users\lowka\Desktop\microblog\app\__init__.py:74]
2018-05-29 17:32:49,080 INFO: Microblog startup [in C:\Users\lowka\Desktop\microblog\app\__init__.py:74]
2018-05-29 17:38:11,968 INFO: Microblog startup [in C:\Users\lowka\Desktop\microblog\app\__init__.py:74]
2018-05-29 17:38:11,968 INFO: Microblog startup [in C:\Users\lowka\Desktop\microblog\app\__init__.py:74]
2018-05-29 18:47:25,390 INFO: Microblog startup [in C:\Users\lowka\Desktop\microblog\app\__init__.py:76]
2018-05-29 18:48:42,423 INFO: Microblog startup [in C:\Users\lowka\Desktop\microblog\app\__init__.py:76]
2018-05-29 18:52:41,253 INFO: Microblog startup [in C:\Users\lowka\Desktop\microblog\app\__init__.py:76]
2018-05-29 18:57:16,280 INFO: Microblog startup [in C:\Users\lowka\Desktop\microblog\app\__init__.py:77]
2018-05-29 19:07:17,250 INFO: Microblog startup [in C:\Users\lowka\Desktop\microblog\app\__init__.py:77]
2018-05-29 19:14:30,149 INFO: Microblog startup [in C:\Users\lowka\Desktop\microblog\app\__init__.py:77]
2018-05-29 19:19:29,025 INFO: Microblog startup [in C:\Users\lowka\Desktop\microblog\app\__init__.py:77]
2018-05-29 19:27:23,390 INFO: Microblog startup [in C:\Users\lowka\Desktop\microblog\app\__init__.py:77]
2018-05-30 13:26:19,922 INFO: Microblog startup [in C:\Users\lowka\Desktop\microblog\app\__init__.py:77]
2018-05-30 13:42:10,522 INFO: Microblog startup [in C:\Users\lowka\Desktop\microblog\app\__init__.py:77]
2018-06-01 11:08:40,097 INFO: Microblog startup [in C:\Users\lowka\Desktop\microblog\app\__init__.py:77]
2018-06-01 11:08:53,236 INFO: Microblog startup [in C:\Users\lowka\Desktop\microblog\app\__init__.py:77]
2018-06-01 11:09:28,971 INFO: Microblog startup [in C:\Users\lowka\Desktop\microblog\app\__init__.py:77]
2018-06-01 13:25:36,490 INFO: Microblog startup [in C:\Users\lowka\Desktop\microblog\app\__init__.py:77]
2018-06-01 13:25:42,272 INFO: Microblog startup [in C:\Users\lowka\Desktop\microblog\app\__init__.py:77]
2018-06-01 16:03:20,234 INFO: Microblog startup [in c:\Users\lowka\Desktop\microblog\app\__init__.py:77]
2018-06-01 16:03:28,919 INFO: Microblog startup [in c:\Users\lowka\Desktop\microblog\app\__init__.py:77]
2018-06-04 11:24:32,349 INFO: Microblog startup [in c:\Users\lowka\Desktop\microblog\app\__init__.py:77]
2018-06-04 11:25:05,056 INFO: Microblog startup [in c:\Users\lowka\Desktop\microblog\app\__init__.py:77]
2018-06-04 12:08:45,965 INFO: Microblog startup [in c:\Users\lowka\Desktop\microblog\app\__init__.py:77]
2018-06-04 12:08:50,003 INFO: Microblog startup [in c:\Users\lowka\Desktop\microblog\app\__init__.py:77]
2018-06-04 12:09:01,843 INFO: Microblog startup [in c:\Users\lowka\Desktop\microblog\app\__init__.py:77]
2018-06-04 15:31:01,114 INFO: Microblog startup [in c:\Users\lowka\Desktop\microblog\app\__init__.py:77]
2018-06-04 15:31:19,797 INFO: Microblog startup [in c:\Users\lowka\Desktop\microblog\app\__init__.py:77]
2018-06-04 15:31:49,167 INFO: Microblog startup [in C:\Users\lowka\Desktop\microblog\app\__init__.py:77]
2018-06-04 15:32:47,399 INFO: Microblog startup [in c:\Users\lowka\Desktop\microblog\app\__init__.py:77]
2018-06-04 15:34:36,517 INFO: Microblog startup [in c:\Users\lowka\Desktop\microblog\app\__init__.py:77]
2018-06-04 16:05:14,234 INFO: Microblog startup [in c:\Users\lowka\Desktop\microblog\app\__init__.py:77]
2018-06-04 16:05:21,219 INFO: Microblog startup [in c:\Users\lowka\Desktop\microblog\app\__init__.py:77]
2018-06-04 16:35:03,065 INFO: Microblog startup [in c:\Users\lowka\Desktop\microblog\app\__init__.py:77]
2018-06-04 16:35:07,144 ERROR: Exception on / [GET] [in c:\users\lowka\desktop\microblog\venv\lib\site-packages\flask\app.py:1761]
Traceback (most recent call last):
  File "c:\users\lowka\desktop\microblog\venv\lib\site-packages\flask\app.py", line 2292, in wsgi_app
    response = self.full_dispatch_request()
  File "c:\users\lowka\desktop\microblog\venv\lib\site-packages\flask\app.py", line 1815, in full_dispatch_request
    rv = self.handle_user_exception(e)
  File "c:\users\lowka\desktop\microblog\venv\lib\site-packages\flask\app.py", line 1718, in handle_user_exception
    reraise(exc_type, exc_value, tb)
  File "c:\users\lowka\desktop\microblog\venv\lib\site-packages\flask\_compat.py", line 35, in reraise
    raise value
  File "c:\users\lowka\desktop\microblog\venv\lib\site-packages\flask\app.py", line 1813, in full_dispatch_request
    rv = self.dispatch_request()
  File "c:\users\lowka\desktop\microblog\venv\lib\site-packages\flask\app.py", line 1799, in dispatch_request
    return self.view_functions[rule.endpoint](**req.view_args)
  File "c:\users\lowka\desktop\microblog\venv\lib\site-packages\flask_login\utils.py", line 261, in decorated_view
    return func(*args, **kwargs)
  File "c:\Users\lowka\Desktop\microblog\app\main\routes.py", line 50, in index
    prev_url=prev_url)
  File "c:\users\lowka\desktop\microblog\venv\lib\site-packages\flask\templating.py", line 135, in render_template
    context, ctx.app)
  File "c:\users\lowka\desktop\microblog\venv\lib\site-packages\flask\templating.py", line 117, in _render
    rv = template.render(context)
  File "c:\users\lowka\desktop\microblog\venv\lib\site-packages\jinja2\asyncsupport.py", line 76, in render
    return original_render(self, *args, **kwargs)
  File "c:\users\lowka\desktop\microblog\venv\lib\site-packages\jinja2\environment.py", line 1008, in render
    return self.environment.handle_exception(exc_info, True)
  File "c:\users\lowka\desktop\microblog\venv\lib\site-packages\jinja2\environment.py", line 780, in handle_exception
    reraise(exc_type, exc_value, tb)
  File "c:\users\lowka\desktop\microblog\venv\lib\site-packages\jinja2\_compat.py", line 37, in reraise
    raise value.with_traceback(tb)
  File "c:\Users\lowka\Desktop\microblog\app\templates\index.html", line 2, in top-level template code
    {% import 'bootstrap/wtf.html' as wtf %}
  File "c:\Users\lowka\Desktop\microblog\app\templates\base.html", line 1, in top-level template code
    {% extends 'bootstrap/base.html' %}
  File "c:\users\lowka\desktop\microblog\venv\lib\site-packages\flask_bootstrap\templates\bootstrap\base.html", line 1, in top-level template code
    {% block doc -%}
  File "c:\users\lowka\desktop\microblog\venv\lib\site-packages\flask_bootstrap\templates\bootstrap\base.html", line 4, in block "doc"
    {%- block html %}
  File "c:\users\lowka\desktop\microblog\venv\lib\site-packages\flask_bootstrap\templates\bootstrap\base.html", line 20, in block "html"
    {% block body -%}
  File "c:\users\lowka\desktop\microblog\venv\lib\site-packages\flask_bootstrap\templates\bootstrap\base.html", line 21, in block "body"
    {% block navbar %}
  File "c:\Users\lowka\Desktop\microblog\app\templates\base.html", line 37, in block "navbar"
    {% set new_messages = current_user.new_messages() %}
  File "c:\Users\lowka\Desktop\microblog\app\models.py", line 132, in new_messages
    return Message.query.filter_by(recipient=self).filter(Message.timestamp>last_read_time.count())
AttributeError: 'datetime.datetime' object has no attribute 'count'
