2018-06-04 16:38:47,803 INFO: Microblog startup [in c:\Users\lowka\Desktop\microblog\app\__init__.py:77]
2018-06-05 14:34:56,401 INFO: Microblog startup [in c:\Users\lowka\Desktop\microblog\app\__init__.py:77]
2018-06-05 14:35:01,844 INFO: Microblog startup [in c:\Users\lowka\Desktop\microblog\app\__init__.py:77]
2018-06-05 15:27:46,585 INFO: Microblog startup [in c:\Users\lowka\Desktop\microblog\app\__init__.py:80]
2018-06-05 16:27:02,718 INFO: Microblog startup [in c:\Users\lowka\Desktop\microblog\app\__init__.py:83]
2018-06-05 16:27:15,212 ERROR: Exception on /api/users/1 [GET] [in c:\users\lowka\desktop\microblog\venv\lib\site-packages\flask\app.py:1761]
Traceback (most recent call last):
  File "c:\users\lowka\desktop\microblog\venv\lib\site-packages\flask\app.py", line 2292, in wsgi_app
    response = self.full_dispatch_request()
  File "c:\users\lowka\desktop\microblog\venv\lib\site-packages\flask\app.py", line 1815, in full_dispatch_request
    rv = self.handle_user_exception(e)
  File "c:\users\lowka\desktop\microblog\venv\lib\site-packages\flask\app.py", line 1718, in handle_user_exception
    reraise(exc_type, exc_value, tb)
  File "c:\users\lowka\desktop\microblog\venv\lib\site-packages\flask\_compat.py", line 35, in reraise
    raise value
  File "c:\users\lowka\desktop\microblog\venv\lib\site-packages\flask\app.py", line 1813, in full_dispatch_request
    rv = self.dispatch_request()
  File "c:\users\lowka\desktop\microblog\venv\lib\site-packages\flask\app.py", line 1799, in dispatch_request
    return self.view_functions[rule.endpoint](**req.view_args)
  File "c:\Users\lowka\Desktop\microblog\app\api\users.py", line 8, in get_user
    return jsonify(User.query.get_or_404(id).to_dict())
  File "c:\Users\lowka\Desktop\microblog\app\models.py", line 183, in to_dict
    'last_seen': self.last_seen.isoformat() + 'Z',
AttributeError: 'NoneType' object has no attribute 'isoformat'
2018-06-05 16:27:32,379 ERROR: Exception on /api/users/1 [GET] [in c:\users\lowka\desktop\microblog\venv\lib\site-packages\flask\app.py:1761]
Traceback (most recent call last):
  File "c:\users\lowka\desktop\microblog\venv\lib\site-packages\flask\app.py", line 2292, in wsgi_app
    response = self.full_dispatch_request()
  File "c:\users\lowka\desktop\microblog\venv\lib\site-packages\flask\app.py", line 1815, in full_dispatch_request
    rv = self.handle_user_exception(e)
  File "c:\users\lowka\desktop\microblog\venv\lib\site-packages\flask\app.py", line 1718, in handle_user_exception
    reraise(exc_type, exc_value, tb)
  File "c:\users\lowka\desktop\microblog\venv\lib\site-packages\flask\_compat.py", line 35, in reraise
    raise value
  File "c:\users\lowka\desktop\microblog\venv\lib\site-packages\flask\app.py", line 1813, in full_dispatch_request
    rv = self.dispatch_request()
  File "c:\users\lowka\desktop\microblog\venv\lib\site-packages\flask\app.py", line 1799, in dispatch_request
    return self.view_functions[rule.endpoint](**req.view_args)
  File "c:\Users\lowka\Desktop\microblog\app\api\users.py", line 8, in get_user
    return jsonify(User.query.get_or_404(id).to_dict())
  File "c:\Users\lowka\Desktop\microblog\app\models.py", line 183, in to_dict
    'last_seen': self.last_seen.isoformat() + 'Z',
AttributeError: 'NoneType' object has no attribute 'isoformat'
2018-06-05 16:30:22,516 INFO: Microblog startup [in c:\Users\lowka\Desktop\microblog\app\__init__.py:83]
2018-06-05 16:30:34,874 ERROR: Exception on /api/users/1 [GET] [in c:\users\lowka\desktop\microblog\venv\lib\site-packages\flask\app.py:1761]
Traceback (most recent call last):
  File "c:\users\lowka\desktop\microblog\venv\lib\site-packages\flask\app.py", line 2292, in wsgi_app
    response = self.full_dispatch_request()
  File "c:\users\lowka\desktop\microblog\venv\lib\site-packages\flask\app.py", line 1815, in full_dispatch_request
    rv = self.handle_user_exception(e)
  File "c:\users\lowka\desktop\microblog\venv\lib\site-packages\flask\app.py", line 1718, in handle_user_exception
    reraise(exc_type, exc_value, tb)
  File "c:\users\lowka\desktop\microblog\venv\lib\site-packages\flask\_compat.py", line 35, in reraise
    raise value
  File "c:\users\lowka\desktop\microblog\venv\lib\site-packages\flask\app.py", line 1813, in full_dispatch_request
    rv = self.dispatch_request()
  File "c:\users\lowka\desktop\microblog\venv\lib\site-packages\flask\app.py", line 1799, in dispatch_request
    return self.view_functions[rule.endpoint](**req.view_args)
  File "c:\Users\lowka\Desktop\microblog\app\api\users.py", line 8, in get_user
    return jsonify(User.query.get_or_404(id).to_dict())
  File "c:\Users\lowka\Desktop\microblog\app\models.py", line 183, in to_dict
    'last_seen': self.last_seen.isoformat() + 'Z',
AttributeError: 'NoneType' object has no attribute 'isoformat'
2018-06-05 16:31:16,376 INFO: Microblog startup [in c:\Users\lowka\Desktop\microblog\app\__init__.py:83]
